"","b1","b2","b3","b4","b5","b6","b7","b8","b9","pred_minus_obs_H_b1","pred_minus_obs_H_b2","pred_minus_obs_H_b3","pred_minus_obs_H_b4","pred_minus_obs_H_b5","pred_minus_obs_H_b6","pred_minus_obs_H_b7","pred_minus_obs_H_b8","pred_minus_obs_H_b9"
"1",0.576169164260257,0.729404583067596,0.357391584243295,1.30758000943312,0.940452415695011,1.10843529797217,2.94792305703103,0.387063397590789,0.782833348842093,-0.486555958404167,-0.725726812836907,-0.292597742757987,-1.21337255304838,-0.879509323240785,-0.956141820304721,-2.85821119406279,-0.138859269219445,-0.534640088886957
"2",0.576169164260257,-0.714401197699248,-0.709264533751716,0.0654606407265308,-0.735529588387006,-0.270657862903315,-0.34501065244452,-0.232001302531482,-0.0782010180231324,-0.468523763515964,0.748068915209761,0.831216444732892,0.153989950082019,0.809747768858463,0.510964463652113,0.491913504253533,0.303577726298964,0.20891293117073
"3",0.252151451455833,-0.839949526461583,-0.772009011280834,-0.245069201450117,-0.823739167549218,-0.861697788992809,-0.405990906323697,-0.232001302531482,-0.293459609739439,-0.0639753912414874,0.867615573682764,0.85211628350132,0.562383618052382,0.897535932699841,1.11488972163708,0.62543296686759,0.28396833037571,0.403397174856339
"4",0.252151451455833,0.164437103637092,0.0436691965977038,-0.0898042803617931,0.675823678208377,0.812915334927425,1.42341671005161,0.0156245775174262,-0.0782010180231324,-0.117287967432698,-0.110827846434741,0.0973335348358197,0.35667421492657,-0.609937587808674,-0.595394453222185,-1.23412900335727,0.0486555792966675,0.199242443915645
"5",-1.12492382796297,-0.777175362080416,-0.772009011280834,-1.17665872798006,-0.647320009224795,-0.960204443341058,-0.710892175719581,-0.232001302531482,-0.401088905597592,1.14731770016174,0.778721904561813,0.844950624495002,1.25892170731295,0.720186106757663,1.1892499031527,0.800222081562354,0.378338548256368,0.584987435535167
"6",-0.0718662613485912,1.23159789811693,1.36130322470919,-0.400334122538441,1.02866199485722,0.418888717534429,0.264791886347248,0.13943751754188,-0.185830313881286,0.129674701688349,-1.21985300119199,-1.2504074966025,0.397513581723606,-0.970844483601007,-0.261778503719672,-0.213918927656228,0.160184018610172,0.475388579977531
"7",1.87224001547795,-0.714401197699248,-0.521031101164361,1.46284493052145,-0.647320009224795,-0.369164517251564,1.05753518677655,-0.108188362507028,0.459945461267634,-1.31838894868172,0.727224882450365,0.610872430288612,-1.01825113390698,0.75742957020552,0.735049875516752,-0.654533154282614,-0.0224284809251267,-0.535714587470855
"8",0.252151451455833,-0.149433718268744,-0.270053191047888,-0.245069201450117,-0.0298529550893146,0.123368754489681,0.0818511247097176,-0.108188362507028,0.244686869551327,-0.0686794420818884,0.196928166659863,0.37739137433275,0.575996740318061,0.0994617159600387,0.11002240385843,0.143549088160495,0.158958431364969,-0.136001114260654
"9",1.38621344627132,-0.651627033318081,-0.646520056222598,0.375990482903179,-0.647320009224795,-0.664684480296311,-0.040109383048636,-0.108188362507028,-0.0782010180231324,-1.29330067753292,0.627909196949716,0.669989117090736,-0.361796126873142,0.705998120682288,0.835536607294617,0.0956034629490844,0.362405914068724,0.33570376407074
"10",-0.233875117750803,0.289985432399426,0.16915815165594,0.686520325079827,0.0583566240728969,0.418888717534429,0.630673409622309,-0.232001302531482,-0.0782010180231324,0.29353247262898,-0.219952488528047,0.0316483272779047,-0.450281421600054,0.0134470503780823,-0.177369649026265,-0.487026919366798,0.277840394149693,0.194944449580051
"11",0.414160307858045,-0.651627033318081,-0.646520056222598,0.220725561814855,-0.647320009224795,-0.467671171599813,0.0818511247097176,0.0156245775174262,0.244686869551327,-0.230185187602319,0.702089431181682,0.720745868385489,0.233399829965146,0.718412608498241,0.701889254030057,0.144155994808741,0.0854231966527679,-0.106989652495397
"12",-0.557892830555228,0.980501240592265,0.859347404476242,0.0654606407265308,2.44001526145261,2.09350184145466,0.99655493289737,1.62519279783533,1.96675560328178,0.502078726553419,-0.878991759597168,-0.544590084480171,-0.0169303628092805,-2.36924786115508,-1.83540072336104,-0.963448638239681,-1.59608250376622,-1.85412434991418
"13",-1.20592825616408,-0.212207882649911,-0.144564235989651,-0.0898042803617931,-0.118062534251526,0.221875408837931,-0.284030398565343,0.0156245775174262,-0.401088905597592,1.31587952194277,0.220837498354464,0.219746876193753,0.252306944223033,0.194343872839104,0.0215940798939083,0.355359508398249,-0.0947381283921241,0.376534710258879
"14",1.71023115907574,-0.777175362080416,-0.646520056222598,1.07468262780064,-0.647320009224795,-0.566177825948062,0.447732647984778,-0.232001302531482,0.0294282778350208,-1.60141600757918,0.763395409885787,0.687306126356005,-0.950185522578591,0.726393350665639,0.81845386289238,-0.443936547341352,0.149153733403342,-0.0554137204682742
"15",-0.0718662613485912,1.54546872002277,1.29855874718007,-0.322701661994279,2.08717694480376,1.89648853275817,1.48439696393078,1.00612809771306,1.10572123641655,0.0598979475557359,-1.44791124197126,-1.00976078164032,0.373312475473511,-2.02518919882726,-1.67864142178757,-1.42894603744414,-0.896272186755113,-0.936502559264955
"16",-0.152870689549697,-0.400530375793413,-0.521031101164361,-0.245069201450117,-0.647320009224795,-0.467671171599813,-0.405990906323697,-0.108188362507028,-0.185830313881286,0.350765091187191,0.452574097855978,0.596541112275976,0.709102824693587,0.720186106757663,0.710933059890064,0.649709232797418,0.200628397701882,0.314213792392772
"17",-0.800906115158546,0.729404583067596,1.11032531459272,0.143093101270693,1.82254820731713,1.20694195232042,-0.771872429598758,1.25375397776197,0.782833348842093,0.800785954918876,-0.673003671151378,-0.895707375789755,-0.0562571604656858,-1.76625845295168,-1.01241439010033,0.839671013698326,-1.09236614598765,-0.587290519497978
"18",-1.93496810997403,-0.274982047031078,-0.395542146106124,-0.633231504170927,0.23477578239732,0.517395371882678,-1.50363547614888,-0.603440122604845,-0.723976793172052,2.23473745276775,0.299922210882758,0.48487625942752,0.982877839147793,-0.15769553165612,-0.234647086139648,1.75245861265987,0.520506668699956,0.699958784012295
"19",-0.314879545951909,-0.526078704555747,-0.521031101164361,-0.322701661994279,-0.38269127173816,-0.467671171599813,0.447732647984778,-0.108188362507028,-0.185830313881286,0.406429692798601,0.522462913578657,0.571461305753863,0.445915794223797,0.459481862622661,0.717967131114515,-0.40752214844661,0.0278205961282106,0.160560494895302
"20",-1.61095039716961,-0.0866595538875768,-0.395542146106124,-0.0898042803617931,0.146566203235108,0.123368754489681,-1.32069471451135,0.13943751754188,0.0294282778350208,1.4491609624208,0.0786076277609414,0.444867996642244,0.0329844188315416,-0.0681338695553199,0.118061342400659,1.1765042034747,-0.227101550874086,-0.0747546949784452
"21",1.22420458986911,2.36153285697794,2.17698143258773,1.22994754888896,1.73433862815491,1.99499518710641,2.52106127987679,1.12994103773751,1.85912630742362,-1.41952604175034,-2.31355166127321,-1.99205320375641,-1.38731800422094,-1.645660571311,-1.74697239939652,-2.79084455610752,-1.21737604499839,-1.908923777693
"22",-0.800906115158546,-0.337756211412245,-0.395542146106124,-0.0121718198176311,-0.294481692575949,-0.0736445542068167,-0.223050144686166,-0.355814242555936,-0.508718201455745,1.12614947137994,0.358162890651657,0.481890568174888,0.3483550846531,0.372580447910993,0.361239233303093,0.454892198710545,0.26926128343327,0.477537577145328
"23",-2.33999025097956,-0.839949526461583,-0.960242443868189,-0.633231504170927,-0.559110430062583,-0.566177825948062,-2.11343801494065,-0.727253062629299,-1.26212327246282,2.5224685625056,0.869454753043887,1.01214933464242,1.06001886531997,0.626190699008308,0.813429526303487,2.33751662156874,0.765624117740625,1.34035994001574
"24",0.252151451455833,-0.588852868936914,-0.58377557869348,0.0654606407265308,-0.559110430062583,-0.664684480296311,0.0208708708305408,-0.108188362507028,-0.0782010180231324,-0.23332122149592,0.573346875903064,0.619232365795984,-0.0297872005046438,0.630624444656863,0.895828646361337,-0.0591577323535719,0.0216926599021938,0.0369931577469874
"25",-1.04391939976186,-0.839949526461583,-0.834753488809953,-1.02139380689174,-0.735529588387006,-0.861697788992809,-1.07677369899464,-0.603440122604845,-0.831606089030205,1.09557314091733,0.88845960644216,0.950046956587666,1.29673593582872,0.801767026691065,1.09278264064595,1.22748436192733,0.716600627932491,0.995445894584353
"26",-0.962914971560758,-0.839949526461583,-0.834753488809953,-0.866128885803413,-0.911948746711429,-0.960204443341058,-1.74755649166559,-0.47962718258039,-0.616347497313898,0.758449497355267,0.811214073274988,0.871224707518168,0.693977133287277,1.00483257739486,1.24451760563053,1.51576501984405,0.375887373765961,0.563497463857199
"27",0.657173592461364,-0.651627033318081,-0.521031101164361,1.07468262780064,-0.911948746711429,-0.566177825948062,0.0818511247097176,-0.355814242555936,-0.401088905597592,-0.418347221218354,0.685536816931574,0.587584038518079,-0.626495726483563,0.975569856114399,0.798356516536807,0.129590235250844,0.367308263049538,0.45604760546736
"28",-0.395883974153016,-0.212207882649911,-0.395542146106124,-0.943761346347575,-0.118062534251526,-0.467671171599813,0.264791886347248,-0.108188362507028,-0.293459609739439,0.421325853793204,0.22451585707671,0.459199314654881,0.984390408288424,0.167741398947777,0.634563143738887,-0.177504528761485,0.286419504866117,0.499027548823296
"29",-0.233875117750803,-0.588852868936914,-0.646520056222598,0.220725561814855,-0.294481692575949,-0.566177825948062,0.508712901863955,-0.355814242555936,-0.185830313881286,0.469934379144013,0.599095386958787,0.709997379876012,0.0458412565269049,0.372580447910993,0.841565811201289,-0.347438390270284,0.277840394149693,0.167007486398693
"30",-0.962914971560758,0.0388887748747576,-0.144564235989651,0.764152785623989,-0.0298529550893146,0.517395371882678,0.447732647984778,0.0156245775174262,0.137057573693174,0.563231387478631,-0.0427782100731852,0.220344014444279,-1.05455279328213,0.14113892505645,-0.199476730017395,-0.963448638239681,-0.147438379935868,-0.238078479731001
"31",-0.881910543359652,-0.839949526461583,-0.772009011280834,-1.17665872798006,0.0583566240728969,-0.369164517251564,-1.32069471451135,-0.47962718258039,-0.293459609739439,0.731793209259663,0.811214073274988,0.801359532206567,1.07438827215597,0.0187675451563478,0.615470664701092,1.15890391067557,0.379564135501571,0.24222238727158
"32",0.0091381668525149,1.85933954192861,1.67502561235478,0.143093101270693,2.08717694480376,2.29051515015116,-0.893832937357111,2.73950925805542,1.96675560328178,-0.263113543485125,-1.8249430110015,-1.51434260333521,-0.423055177068697,-1.979964993212,-2.02029630983231,0.595087634455304,-2.80328594029152,-1.99703266157267
"33",-0.476888402354122,-0.714401197699248,-0.772009011280834,0.298358022359017,-0.735529588387006,-0.664684480296311,-0.649911921840404,-0.47962718258039,-0.401088905597592,0.617327972143241,0.761556230524664,0.828827891730786,0.114663152425614,0.79733328104251,0.874726432687985,0.863947279628154,0.605072188618987,0.566720959608894
"34",-1.20592825616408,-0.839949526461583,-0.897497966339071,-0.943761346347575,-0.559110430062583,-0.566177825948062,-1.32069471451135,-0.355814242555936,-0.616347497313898,1.34880787782558,0.876198410701339,0.942284159330822,1.35572613231333,0.617323207711199,0.783283506770127,1.51819264643703,0.383240897237181,0.685990302421616
"35",0.171147023254727,0.917727076211098,1.0475808370636,0.531255403991503,1.02866199485722,0.911421989275674,1.85027848720584,0.263250457566335,0.67520405298394,0.0105054137315263,-0.834851454930213,-0.910635832052917,-0.0880211124189363,-0.975278229249562,-0.729041806486745,-1.60798349867663,-0.133956920238631,-0.511001120041192
"36",0.0091381668525149,1.04327540497343,0.796602926947124,-1.02139380689174,1.29329073234386,0.32038206318618,0.874594425139016,-0.108188362507028,-0.185830313881286,-0.0490792302468847,-0.943976097023519,-0.51234461895174,1.08195111785912,-1.23243547686572,-0.0768829172483994,-0.837212055404573,0.199402810456679,0.345374251325826
"37",0.333155879656939,0.541082089924095,0.16915815165594,0.997050167256475,0.499404519883954,0.714408680579176,0.935574679018193,0.263250457566335,0.459945461267634,-0.176088602937709,-0.51544730588183,-0.0859879080758167,-0.787584339960761,-0.433474510996207,-0.499932058033212,-0.849957095017733,-0.33862999018759,-0.481989658275935
"38",-1.44894154076739,-0.0238853895064096,-0.144564235989651,-0.788496425259251,0.499404519883954,0.418888717534429,0.264791886347248,-0.232001302531482,-0.616347497313898,1.63653898756343,0.0681856113812437,0.237661023709548,1.256652853602,-0.437908256644762,-0.178374516344044,-0.0154604536798807,0.234944840567576,0.668798325079242
"39",1.06219573346689,-0.714401197699248,-0.709264533751716,1.30758000943312,-0.647320009224795,-0.369164517251564,0.386752394105602,-0.355814242555936,-0.0782010180231324,-0.798591330817426,0.744390556487515,0.775085449183401,-0.77775264054666,0.714865611979397,0.623509603243322,-0.135627970032531,0.361180326823521,0.135847027465639
"40",0.414160307858045,2.04766203507211,1.98874800000037,-1.33192364906839,3.05748231558809,2.68454176754416,0.752633917380662,6.94914921888686,5.84141025417529,-0.591613093839787,-2.0131523656231,-1.81470314335004,0.981365270007162,-2.93676730417005,-2.40516049254154,-0.947669065385292,-6.934740543872,-5.81150263441196
"41",-1.36793711256629,0.0388887748747576,0.106413674126822,-0.555599043626765,-0.0298529550893146,0.0248621001414324,0.142831378588894,-0.355814242555936,-0.616347497313898,1.55500210632982,-0.00967298157296876,-0.00716565900631831,0.887585983288042,0.0950279703114841,0.225582145402975,0.0464440244411818,0.28764509211132,0.605402908629236
"42",1.30520901807021,-0.651627033318081,-0.521031101164361,0.531255403991503,-0.823739167549218,-0.566177825948062,0.0818511247097176,-0.355814242555936,0.0294282778350208,-1.56927166016977,0.629748376310839,0.576835550008602,-0.761114379999719,0.929458901369433,0.881760503912435,-0.468212813271181,0.237396015057983,-0.1048406553276
"43",0.0091381668525149,1.1060495693546,0.733858449418005,0.608887864535665,1.91075778647934,1.89648853275817,1.24047594841408,0.758502217664151,0.998091940558399,0.072442083130138,-1.01325185295916,-0.572655582254917,-0.289949092693171,-1.8655743554793,-1.74596753207874,-1.07087111497917,-0.626642992810376,-0.831201698042913
"44",0.333155879656939,2.17321036383444,1.92600352247125,0.841785246168151,2.52822484061482,2.58603511319591,2.46008102599761,1.25375397776197,1.53623841984917,-0.325050212883737,-2.06464938773455,-1.67079282497316,-0.668091377850915,-2.48718549540663,-2.4493746545238,-2.37147206216973,-1.10094525670407,-1.35018451406584
"45",-0.314879545951909,-0.46330454017458,-0.521031101164361,0.0654606407265308,-0.735529588387006,-0.467671171599813,-0.405990906323697,-0.47962718258039,-0.293459609739439,0.312348675990583,0.442765141263321,0.54817291398333,-0.0471817456219,0.798220030172221,0.66872863254336,0.35657332169474,0.384466484482385,0.244371384439377
"46",0.819182448863576,0.854952911829931,0.608369494359769,0.453622943447341,1.29329073234386,1.20694195232042,0.99655493289737,0.263250457566335,0.459945461267634,-0.803295381657827,-0.814007422170818,-0.49861043918963,-0.444987429607846,-1.26701869292444,-1.10888165260708,-0.935530932420378,-0.129054571257818,-0.300399397597107
"47",-0.0718662613485912,-0.651627033318081,-0.58377557869348,-0.0121718198176311,-0.559110430062583,-0.566177825948062,-0.16206989080699,-0.108188362507028,0.0294282778350208,0.070874066183338,0.62423083822747,0.605498186033874,0.0171024428549164,0.619983455100332,0.764191027732333,0.105920875969261,0.0143391364309738,-0.0790526893140388
"48",-1.44894154076739,-0.651627033318081,-0.772009011280834,-1.17665872798006,-0.38269127173816,-0.664684480296311,-1.07677369899464,-0.355814242555936,-0.616347497313898,1.42642471669219,0.702702490968724,0.89988734354344,1.36102012430554,0.438199883509599,0.871711830734649,1.18075255001242,0.458001719194585,0.766577696213995
"49",1.46721787447242,-0.588852868936914,-0.458286623635243,1.07468262780064,-0.470900850900372,-0.0736445542068167,0.99655493289737,-0.108188362507028,0.244686869551327,-1.35366932998473,0.639557332903496,0.555338572989648,-0.763383233710666,0.523327799961845,0.250703828347441,-0.84328112188703,0.225140142605949,-0.0887231765691243
"50",-0.800906115158546,-0.90272369084275,-0.897497966339071,-0.167436740905955,-0.911948746711429,-0.76319113464456,-1.50363547614888,-0.603440122604845,-0.831606089030205,0.967779759753107,0.927695432812786,0.955421200842405,0.648600059068348,0.980890350892665,1.02545653035478,1.73243069326777,0.619779235561427,0.898741022033497
"51",-0.152870689549697,2.23598452821561,2.99265964046627,-1.25429118852422,1.38150031150607,0.812915334927425,-2.17441826881982,0.510876337615243,-0.185830313881286,0.215131625288965,-2.17622626897602,-2.80654977747456,1.42152288993078,-1.33795862330132,-0.663725430831133,2.1870037728038,-0.534723949420126,0.188497458076661
"52",1.30520901807021,2.04766203507211,1.67502561235478,1.54047739106561,1.38150031150607,1.89648853275817,1.78929823332667,0.510876337615243,0.998091940558399,-1.38659768586754,-2.0162176645583,-1.52270253884258,-1.65050503469073,-1.30780915289115,-1.68969496228314,-1.97516202086528,-0.60580800964192,-1.04825041199039
"53",1.46721787447242,-0.777175362080416,-0.521031101164361,1.46284493052145,-0.823739167549218,-0.467671171599813,1.05753518677655,-0.108188362507028,0.137057573693174,-1.22587594882051,0.799565937321208,0.584598347265446,-0.984218328242788,0.881574448365045,0.696864917441163,-0.823253202494922,0.154056082384155,-0.0478922303809854
"54",1.46721787447242,-0.714401197699248,-0.58377557869348,0.919417706712313,-0.911948746711429,-0.76319113464456,-0.16206989080699,-0.47962718258039,-0.185830313881286,-1.45010237221295,0.699637192033518,0.545784360981224,-0.819348291914012,0.933892647017988,0.826492801434609,0.190887806723661,0.597718665147767,0.313139293808874
"55",-0.314879545951909,0.227211268018259,0.0436691965977038,-0.167436740905955,0.411194940721743,0.123368754489681,1.48439696393078,-0.108188362507028,-0.0782010180231324,0.384477455543397,-0.21014353193539,0.00179141475157958,0.391463305161082,-0.363421329749047,0.0386768242961456,-1.43622891722309,0.0829720221623612,0.0853455940224151
"56",-0.638897258756334,-0.714401197699248,-0.58377557869348,0.143093101270693,-0.911948746711429,-1.15721775203756,-1.74755649166559,-0.603440122604845,-1.04686468074651,0.589887675574236,0.736420779255981,0.622218057048616,-0.0146615090983341,0.94630713483394,1.28571716565945,1.78583847831339,0.715375040687288,1.18778114110216
"57",1.54822230267353,-0.777175362080416,-0.521031101164361,1.30758000943312,-0.823739167549218,-0.467671171599813,0.447732647984778,-0.355814242555936,-0.0782010180231324,-1.52615119413276,0.795274518811921,0.54638149923175,-1.14455065714967,0.855858723603429,0.573266237354389,-0.395990922129941,0.472708766137025,0.221806914177511
"58",0.090142595053621,1.60824288440394,1.61228113482566,-0.866128885803413,2.35180568229039,2.38902180449941,1.11851544065572,5.33958099856896,5.41089307074268,-0.218425060501317,-1.58094521575916,-1.45642019303414,0.566921325474275,-2.26017771820064,-2.17002154018133,-1.27782628203096,-5.35373299755969,-5.40749116686616
"59",0.576169164260257,-0.46330454017458,-0.395542146106124,0.298358022359017,-0.294481692575949,-0.0736445542068167,0.508712901863955,0.0156245775174262,0.244686869551327,-0.652765754764999,0.437247603179952,0.448450826145404,-0.512296756365924,0.371693698781282,0.298937459600816,-0.690947553177357,-0.114347524315378,-0.293952406093717
"60",0.819182448863576,-0.714401197699248,-0.709264533751716,0.453622943447341,-0.647320009224795,-0.467671171599813,0.0208708708305408,-0.232001302531482,0.0294282778350208,-0.757822890200618,0.665918903746261,0.733882909897072,-0.516834463787817,0.709545117201132,0.672748101814476,-0.0979997578412973,0.124641988499275,-0.082276185065734
"61",0.252151451455833,-0.651627033318081,-0.58377557869348,0.0654606407265308,-0.735529588387006,-0.566177825948062,-0.16206989080699,-0.232001302531482,0.0294282778350208,-0.215289026607716,0.633426735033086,0.576835550008602,0.0897057616052031,0.779598298448293,0.70691359061895,0.144762901456987,0.193274874230662,-0.0360727459581032
"62",-0.800906115158546,0.164437103637092,-0.0190752809314145,-0.633231504170927,-0.559110430062583,-0.467671171599813,-1.01579344511546,-0.355814242555936,-0.508718201455745,0.942691488604303,-0.0997927702680022,0.052548166046332,1.03884289735114,0.599588225116982,0.611451195429978,1.24144321483699,0.480062289608245,0.661276834991953
"63",-0.638897258756334,-0.714401197699248,-0.58377557869348,-0.477966583082603,0.146566203235108,0.32038206318618,-0.34501065244452,-0.108188362507028,-0.293459609739439,0.811762073546478,0.73580771946894,0.662226319833892,0.962458155749275,-0.0814351065009831,-0.0618099074817197,0.581735688193899,0.106258179821225,0.345374251325826
"64",-0.0718662613485912,-0.588852868936914,-0.646520056222598,-0.633231504170927,-0.38269127173816,-0.664684480296311,-0.466971160202874,-0.232001302531482,-0.185830313881286,0.209643565975164,0.60093456631991,0.680140467349687,0.98665926199937,0.42933239221249,0.859653422921305,0.588411661324601,0.220237793625136,0.206763934002933
"65",0.900186877064682,-0.777175362080416,-0.58377557869348,0.841785246168151,-0.823739167549218,-0.369164517251564,0.447732647984778,-0.232001302531482,-0.0782010180231324,-0.850335890061836,0.729677121598529,0.591166868021238,-0.903295879219031,0.870046709678803,0.511969330969891,-0.534365637929963,0.123416401254072,0.0155031860690196
"66",-0.314879545951909,-0.839949526461583,-0.772009011280834,-0.555599043626765,-0.823739167549218,-0.664684480296311,-0.405990906323697,-0.355814242555936,-0.401088905597592,0.356253150500992,0.786691681793346,0.793596734949722,0.474654607895786,0.886008194013599,0.874726432687985,0.338973028895614,0.24720071301961,0.348597747077521
"67",-0.395883974153016,-0.0866595538875768,-0.270053191047888,-0.710863964715089,0.146566203235108,-0.270657862903315,0.874594425139016,-0.108188362507028,0.0294282778350208,0.436222014787807,0.14849644348362,0.285432083751669,1.00556637625726,-0.114244824300286,0.381336579658666,-0.737679365092276,0.244749538529203,0.127251038794452
"68",1.30520901807021,-0.0238853895064096,0.106413674126822,0.841785246168151,-0.470900850900372,0.123368754489681,0.752633917380662,-0.108188362507028,0.244686869551327,-1.24155611828851,-0.0108991011470508,-0.0656852075579154,-0.919177855195656,0.513573559535025,0.0075259374450071,-0.844494935183521,-0.00281908500187309,-0.308995386268295
"69",-0.395883974153016,-0.0238853895064096,-0.0190752809314145,-0.555599043626765,0.675823678208377,0.221875408837931,0.630673409622309,-0.108188362507028,-0.293459609739439,0.432301972420806,0.0890296441406392,0.0364254332821166,0.856578315905107,-0.648067800386243,-0.12913601777289,-0.494309799145746,0.248426300264813,0.450675112547868
"70",-0.638897258756334,-0.777175362080416,-0.646520056222598,-0.710863964715089,-0.735529588387006,-0.76319113464456,-1.01579344511546,-0.355814242555936,-0.508718201455745,0.818034141333679,0.797726757960085,0.698054614865482,1.1590921440313,0.790239288004823,0.989281306914751,1.24811918796769,0.406527054896045,0.602179412877541
"71",0.495164736059151,-0.651627033318081,-0.58377557869348,0.0654606407265308,-0.647320009224795,-0.369164517251564,-0.649911921840404,-0.232001302531482,-0.185830313881286,-0.532812458334776,0.619326359931142,0.625800886551775,-0.279361108708754,0.720186106757663,0.581305175896618,0.495554944143008,0.134446686460902,0.139070523217335
"72",-1.28693268436518,0.227211268018259,0.294647106714177,-0.943761346347575,-0.118062534251526,-0.172151208555066,-0.466971160202874,-0.355814242555936,-0.616347497313898,1.4468089370006,-0.175812183861092,-0.25617230947587,1.3443818637586,0.146459419834716,0.295922857647481,0.689765071581635,0.439617910516535,0.73004474436145
"73",0.576169164260257,1.79656537754744,1.67502561235478,0.919417706712313,2.08717694480376,2.09350184145466,-0.52795141408205,2.86332219807987,2.28964349085624,-0.655117780185199,-1.76179785293627,-1.51553687983626,-1.15816377941535,-2.01188796188159,-1.90976090487666,0.372352894549128,-2.90868644337901,-2.30541375515151
"74",-0.638897258756334,-0.90272369084275,-0.834753488809953,-0.322701661994279,-1.00015832587364,-1.05871109768931,-1.198734206753,-0.727253062629299,-0.831606089030205,0.800001946445475,0.917273416433089,0.898693067042387,0.778681005162611,1.06690501647462,1.33495566423061,1.41683923618,0.722728564158508,0.880474546107225
"75",1.143200161668,-0.777175362080416,-0.709264533751716,0.608887864535665,-1.08836790503585,-0.960204443341058,0.0818511247097176,-0.355814242555936,-0.185830313881286,-1.16315527094849,0.702702490968724,0.564892784998072,-0.680191930975962,1.08818699558768,0.953106083474719,-0.0749373052079603,0.413880578367265,0.246520381607174
"76",0.333155879656939,-0.714401197699248,-0.521031101164361,0.220725561814855,-0.647320009224795,-0.467671171599813,-0.34501065244452,-0.355814242555936,0.0294282778350208,-0.385418865335548,0.69473271373719,0.443076581890665,-0.150036447184806,0.659887165937322,0.495891453885432,0.371139081252637,0.473934353382229,0.101463072780891
"77",0.73817802066247,-0.588852868936914,-0.458286623635243,0.0654606407265308,-0.470900850900372,-0.270657862903315,0.142831378588894,0.0156245775174262,0.137057573693174,-0.690398161488206,0.569055457393776,0.432925231631715,0.125251136410031,0.490518082162542,0.349180825489749,-0.161118049258851,-0.0506169875648036,-0.152118593019129
"78",-1.12492382796297,-0.90272369084275,-0.960242443868189,-0.866128885803413,-0.911948746711429,-1.05871109768931,-1.86951699942394,-0.603440122604845,-0.723976793172052,1.08773305618333,0.860871916025313,0.980501007364518,0.64481863621677,0.973796357854978,1.25557114612609,1.7421411996397,0.499671685531499,0.672021820830937
"79",-0.233875117750803,-0.777175362080416,-0.772009011280834,-0.477966583082603,-0.823739167549218,-0.76319113464456,-0.893832937357111,-0.47962718258039,-0.293459609739439,0.335084921719188,0.716802866070668,0.787028214193931,0.416420695981493,0.869159960549092,0.943057410296933,0.866374906221137,0.357503565087911,0.229328404264799
"80",-0.962914971560758,-0.90272369084275,-0.960242443868189,-0.477966583082603,-0.823739167549218,-1.15721775203756,-1.50363547614888,-0.603440122604845,-0.723976793172052,0.875266759891889,0.83021892667326,0.898693067042387,0.260626074496503,0.843444235787477,1.22140565732162,1.31366510597823,0.470257591646619,0.631190874642798
"81",-0.71990168695744,0.666630418686429,0.608369494359769,-1.56482103070087,0.675823678208377,-0.0736445542068167,0.386752394105602,-0.355814242555936,-0.508718201455745,0.648688311079247,-0.63315478499371,-0.637743651562305,1.66807165985362,-0.672010026888437,0.0899250575028567,-0.334693350657125,0.460452893684992,0.619371390219915
"82",-0.557892830555228,-0.400530375793413,-0.458286623635243,-0.710863964715089,-0.206272113413737,-0.467671171599813,-0.893832937357111,-0.232001302531482,-0.401088905597592,0.602431811148638,0.39494647787412,0.444867996642244,0.952626456335173,0.227153590638407,0.567237033447717,0.922817224507988,0.209207508418306,0.400173679104644
"83",0.73817802066247,-0.777175362080416,-0.646520056222598,0.608887864535665,-0.911948746711429,-0.664684480296311,-0.223050144686166,-0.603440122604845,-0.508718201455745,-0.479499882143566,0.789143920941511,0.631175130806514,-0.142473601481651,0.941873389185386,0.794337047265692,0.462175078489494,0.679833010576391,0.618296891636017
"84",2.03424887188017,-0.651627033318081,-0.458286623635243,1.61810985160977,-0.735529588387006,-0.369164517251564,0.99655493289737,-0.232001302531482,0.0294282778350208,-2.06319699841186,0.577638294412351,0.395902660099071,-1.81688764016014,0.745015082389568,0.379326845023109,-1.20924583077919,0.096453481859598,-0.13170311992506
"85",0.0091381668525149,1.04327540497343,0.984836359534479,-1.0990262674359,1.29329073234386,0.418888717534429,0.874594425139016,-0.108188362507028,-0.401088905597592,0.00893739678472637,-0.924358183838205,-0.93929846807819,1.38446494598532,-1.28031992987011,-0.36728957208643,-0.738286271740522,0.25087747475522,0.547379985098723
"86",-0.881910543359652,-0.651627033318081,-0.709264533751716,-0.710863964715089,-0.294481692575949,-0.566177825948062,-0.16206989080699,-0.232001302531482,-0.401088905597592,1.18651812383175,0.668371142894425,0.684917573353899,1.29749222039904,0.321148998387762,0.695860050123384,0.494341130846516,0.340345343655064,0.533411503508044
"87",0.0091381668525149,-0.651627033318081,-0.772009011280834,0.0654606407265308,-0.823739167549218,-0.369164517251564,-0.588931667961227,-0.47962718258039,-0.293459609739439,-0.137672187741102,0.569055457393776,0.678946190848634,-0.369358972576297,0.824822504063548,0.347171090854192,0.321979642744734,0.330540645693437,0.177752472237677
"88",-0.71990168695744,0.478307925542928,0.357391584243295,-0.477966583082603,1.46970989066828,1.50246191536517,0.691653663501485,0.510876337615243,0.890462644700246,0.563231387478631,-0.511768947159583,-0.412025392863287,0.414908126840862,-1.48781922622246,-1.59021309782305,-0.90275797341511,-0.551882170852972,-0.934353562097158
"89",-0.962914971560758,0.164437103637092,0.106413674126822,-1.33192364906839,0.8522428365328,-0.0736445542068167,0.630673409622309,-0.232001302531482,-0.293459609739439,0.832146293854881,-0.213821890657636,-0.235272470707442,1.24757743875821,-0.869755082813966,0.0205892125761298,-0.639967394724717,0.299900964563354,0.358268234332606
"90",-0.152870689549697,-0.46330454017458,-0.395542146106124,-0.245069201450117,-0.294481692575949,-0.172151208555066,-0.284030398565343,-0.355814242555936,-0.293459609739439,0.165739091464756,0.432343124883624,0.441285167139086,0.0322281342612261,0.342430977500823,0.321044540591947,0.171466793979798,0.253328649245626,0.236849894352088
"91",1.22420458986911,2.48708118574028,2.23972591011685,0.608887864535665,3.1456918947503,3.07856838493715,-0.16206989080699,2.12044455793315,2.07438489913993,-1.23450004202791,-2.42267630336652,-2.04161567855011,-0.872288211836096,-3.10968338446368,-2.99702734271316,0.0130641587876678,-2.18191320697342,-2.1109295114659
"92",-0.233875117750803,0.666630418686429,0.294647106714177,-1.0990262674359,1.38150031150607,0.418888717534429,1.36243645617243,-0.232001302531482,-0.293459609739439,0.253548040485572,-0.367699897204938,-0.191681378419008,1.66277766786142,-1.35037311111727,-0.32307541010417,-1.11032004711514,0.456776131949382,0.497953050239397
"93",-0.476888402354122,-0.90272369084275,-0.772009011280834,0.453622943447341,-0.823739167549218,-0.566177825948062,-0.284030398565343,-0.232001302531482,-0.293459609739439,0.574991514579633,0.898881622821857,0.744631398406549,-0.0645762907391562,0.844330984917188,0.663704295954468,0.397236067127203,0.244749538529203,0.326033276815655
"94",0.333155879656939,-0.46330454017458,-0.332797668577006,-0.245069201450117,-0.559110430062583,-0.369164517251564,-0.588931667961227,-0.108188362507028,-0.293459609739439,-0.323482195936937,0.437247603179952,0.385154171589594,0.0171024428549164,0.610229214673512,0.522018004147678,0.463995798434231,0.0118879619405671,0.240073390103783
"95",-0.395883974153016,-0.714401197699248,-0.772009011280834,-0.477966583082603,-0.735529588387006,-0.664684480296311,-1.07677369899464,-0.355814242555936,-0.401088905597592,0.427597921580405,0.654883827579522,0.772099757930768,0.329447970395212,0.769844058021473,0.793332179947914,0.972583569664136,0.234944840567576,0.327107775399553
"96",-0.152870689549697,0.227211268018259,0.294647106714177,-0.788496425259251,0.146566203235108,-0.369164517251564,0.203811632468071,-0.232001302531482,-0.401088905597592,0.0285376086197301,-0.231600624481826,-0.372017130078012,0.838427486217535,-0.143507545580746,0.368273304527544,-0.189035755078154,0.335442994674251,0.506549038910584
"97",0.0091381668525149,0.101662939255925,0.0436691965977038,-0.866128885803413,0.23477578239732,-0.0736445542068167,0.508712901863955,-0.355814242555936,-0.185830313881286,0.158683015204154,0.0994516605203369,0.02388553002106,1.5205961686421,-0.198485991622821,0.193426391234058,-0.182359781947451,0.546244000849226,0.373311214507184
"98",0.0091381668525149,-0.777175362080416,-0.58377557869348,-0.0898042803617931,-0.823739167549218,-0.664684480296311,-0.284030398565343,-0.355814242555936,-0.185830313881286,0.209643565975164,0.780561083922936,0.555338572989648,0.535157373521025,0.846104483176609,0.768210497003447,0.487665157715813,0.439617910516535,0.2959473164665
"99",-0.395883974153016,0.289985432399426,-0.0190752809314145,1.22994754888896,-0.118062534251526,0.221875408837931,1.36243645617243,0.0156245775174262,0.244686869551327,0.316268718357584,-0.312524516371244,-0.0370225715326435,-1.14001294972778,0.115423200294835,-0.249720095906328,-1.48296072913801,-0.0371355278675668,-0.262791947160664
"100",-0.962914971560758,-0.149433718268744,0.106413674126822,-0.788496425259251,1.11687157401943,0.32038206318618,-1.01579344511546,-0.232001302531482,-0.616347497313898,0.839986378588883,0.0399848611773558,-0.302151954766411,0.547257926646072,-1.15528830258087,-0.448683824826501,0.989576955815016,0.231268078831966,0.605402908629236
